{
	"name": "mariposa",
	"dockerComposeFile": ["docker-compose.yml"],
	"service": "mariposa",
	"workspaceFolder": "/mariposa",
	"extensions": [
		"eamodio.gitlens",
		"spmeesseman.vscode-taskexplorer",
		"dariofuzinato.vue-peek",
		"octref.vetur",
		"alexcvzz.vscode-sqlite",
		"ms-python.python"
	],
	"shutdownAction": "stopCompose",
	"settings":{
		"files.associations": {
			"Dockerfile*": "dockerfile"
		},
		"php.suggest.basic": false,
		"terminal.integrated.fontSize": 16,
		"remote.extensionKind": {
			"ms-azuretools.vscode-docker": "ui"
		}
	}
}
